<svg width="16" height="17" viewBox="0 0 16 17" fill="none" xmlns="http://www.w3.org/2000/svg">
<path d="M15.6425 7.28299L14.9024 6.72794C14.5828 6.47564 14.4651 6.03833 14.6165 5.66829L14.9697 4.81048C15.1883 4.25542 14.8351 3.64991 14.2464 3.56581L13.3213 3.44807C12.9176 3.39761 12.5981 3.07803 12.5476 2.67436L12.4299 1.74926C12.3458 1.16057 11.7403 0.807353 11.1852 1.02601L10.3274 1.37923C9.95735 1.53061 9.52004 1.41287 9.26774 1.09329L8.69586 0.353217C8.34265 -0.117739 7.61939 -0.117739 7.26618 0.353217L6.72794 1.11011C6.47564 1.42969 6.03833 1.54743 5.66829 1.39605L4.81048 1.02601C4.25542 0.807353 3.64991 1.16057 3.56581 1.74926L3.44807 2.67436C3.39761 3.07803 3.07803 3.39761 2.67436 3.44807L1.74926 3.56581C1.16057 3.64991 0.807353 4.25542 1.02601 4.81048L1.37923 5.66829C1.53061 6.03833 1.41287 6.47564 1.09329 6.72794L0.353217 7.29981C-0.117739 7.65303 -0.117739 8.37628 0.353217 8.7295L1.11011 9.28456C1.42969 9.53685 1.54743 9.97417 1.39605 10.3442L1.02601 11.202C0.807353 11.7571 1.16057 12.3626 1.74926 12.4467L2.67436 12.5644C3.07803 12.6149 3.39761 12.9345 3.44807 13.3381L3.56581 14.2632C3.64991 14.8519 4.25542 15.2051 4.81048 14.9865L5.66829 14.6333C6.03833 14.4819 6.47564 14.5996 6.72794 14.9192L7.29982 15.6593C7.65303 16.1302 8.37629 16.1302 8.7295 15.6593L9.30138 14.9192C9.55368 14.5996 9.99099 14.4819 10.361 14.6333L11.2188 14.9865C11.7739 15.2051 12.3794 14.8519 12.4635 14.2632L12.5812 13.3381C12.6317 12.9345 12.9513 12.6149 13.355 12.5644L14.2801 12.4467C14.8687 12.3626 15.222 11.7571 15.0033 11.202L14.6501 10.3442C14.4987 9.97417 14.6165 9.53685 14.936 9.28456L15.6761 8.71268C16.1134 8.35947 16.1134 7.65303 15.6425 7.28299ZM10.9161 7.09798L7.87169 10.1424C7.70349 10.3106 7.48483 10.3947 7.24936 10.3947C7.01388 10.3947 6.79522 10.3106 6.62702 10.1424L5.09642 8.61176C4.76002 8.27537 4.76002 7.72031 5.09642 7.38391C5.43281 7.04752 5.98787 7.04752 6.32426 7.38391L7.23254 8.29219L9.68823 5.87013C10.0246 5.53373 10.5797 5.53373 10.9161 5.87013C11.2525 6.20652 11.2525 6.76158 10.9161 7.09798Z" fill="#3C91E6"/>
</svg>
